%YAML 1.1
%TAG !u! tag:unity3d.com,2011:
--- !u!114 &11400000
MonoBehaviour:
  m_ObjectHideFlags: 0
  m_CorrespondingSourceObject: {fileID: 0}
  m_PrefabInstance: {fileID: 0}
  m_PrefabAsset: {fileID: 0}
  m_GameObject: {fileID: 0}
  m_Enabled: 1
  m_EditorHideFlags: 0
  m_Script: {fileID: 11500000, guid: 3d8160fe0279f004e97a488cd41266f2, type: 3}
  m_Name: PositionOfAimNomalized
  m_EditorClassIdentifier: 
  DeveloperDescription: 
  Value: {x: 0.87466615, y: 0.48472586, z: 0}
