%YAML 1.1
%TAG !u! tag:unity3d.com,2011:
--- !u!114 &11400000
MonoBehaviour:
  m_ObjectHideFlags: 0
  m_CorrespondingSourceObject: {fileID: 0}
  m_PrefabInstance: {fileID: 0}
  m_PrefabAsset: {fileID: 0}
  m_GameObject: {fileID: 0}
  m_Enabled: 1
  m_EditorHideFlags: 0
  m_Script: {fileID: 11500000, guid: 312714c2bbfa5094b905ad66fa482218, type: 3}
  m_Name: Bullet
  m_EditorClassIdentifier: 
  itemName: 
  desciption: 
  classType: {fileID: 11400000, guid: f30451a553feece48ad1b2ae121f91ae, type: 2}
  timeToUse: 0
  damageAmount: 1
